…
```
## [1] "steps"    "date"     "interval"
```

```r
new_group<-group_by(Activity,date)
Summary<-summarise(new_group,total_steps=sum(steps,na.rm=TRUE))
Summary
```

```
## # A tibble: 61 × 2
##          date total_steps
##        <fctr>       <int>
## 1  2012-10-01           0
## 2  2012-10-02         126
## 3  2012-10-03       11352
## 4  2012-10-04       12116
## 5  2012-10-05       13294
## 6  2012-10-06       15420
## 7  2012-10-07       11015
## 8  2012-10-08           0
## 9  2012-10-09       12811
## 10 2012-10-10        9900
## # ... with 51 more rows
```
…
## What is the average daily activity pattern?
I calculated the averaged steps across all days for each 5-minute time invertal.
Then I plot it. Using which.max () function I found that 13:55pm is the time interval 
that had the max average steps across all days.


```r
interval_group<-group_by(Activity,interval)
interval_group
```

```
## Source: local data frame [17,568 x 3]
## Groups: interval [288]
## 
##    steps       date interval
##    <int>     <fctr>    <int>
## 1     NA 2012-10-01        0
## 2     NA 2012-10-01        5
## 3     NA 2012-10-01       10
## 4     NA 2012-10-01       15
## 5     NA 2012-10-01       20
## 6     NA 2012-10-01       25
## 7     NA 2012-10-01       30
## 8     NA 2012-10-01       35
## 9     NA 2012-10-01       40
## 10    NA 2012-10-01       45
## # ... with 17,558 more rows
```

```r
Interval<-summarize(interval_group,average_steps=mean(steps))
Interval
```

```
## # A tibble: 288 × 2
##    interval average_steps
##       <int>         <dbl>
## 1         0            NA
## 2         5            NA
## 3        10            NA
## 4        15            NA
## 5        20            NA
## 6        25            NA
## 7        30            NA
## 8        35            NA
## 9        40            NA
## 10       45            NA
## # ... with 278 more rows
```
…
```
## [1] "weekday" "weekend"
```

```r
#Make a panel plot containing a time series plot (i.e. 𝚝𝚢𝚙𝚎 = "𝚕") of the 5-minute interval (x-axis) and the average number of #steps taken, averaged across all weekday days or weekend days (y-axis). See the README file in the GitHub repository to see an #example of what this plot should look like using simulated data.


New_interval_group<-group_by(New_Activity,interval,weekday)
New_interval_group
```

```
## Source: local data frame [17,568 x 5]
## Groups: interval, weekday [576]
## 
##      steps       date interval weekdaydetails weekday
##      <dbl>     <fctr>    <int>          <chr>  <fctr>
## 1  37.3826 2012-10-01        0         Monday weekday
## 2  37.3826 2012-10-01        5         Monday weekday
## 3  37.3826 2012-10-01       10         Monday weekday
## 4  37.3826 2012-10-01       15         Monday weekday
## 5  37.3826 2012-10-01       20         Monday weekday
## 6  37.3826 2012-10-01       25         Monday weekday
## 7  37.3826 2012-10-01       30         Monday weekday
## 8  37.3826 2012-10-01       35         Monday weekday
## 9  37.3826 2012-10-01       40         Monday weekday
## 10 37.3826 2012-10-01       45         Monday weekday
## # ... with 17,558 more rows
```

```r
Weekday_Data<-summarize(New_interval_group,average_steps=mean(steps))
Weekday_Data
```

```
## Source: local data frame [576 x 3]
## Groups: interval [?]
## 
##    interval weekday average_steps
##       <int>  <fctr>         <dbl>
## 1         0 weekday      7.006569
## 2         0 weekend      4.672825
## 3         5 weekday      5.384347
## 4         5 weekend      4.672825
## 5        10 weekday      5.139902
## 6        10 weekend      4.672825
## 7        15 weekday      5.162124
## 8        15 weekend      4.672825
## 9        20 weekday      5.073235
## 10       20 weekend      4.672825
## # ... with 566 more rows
```
…
